Practico 12
…
# la visualizo
aeropuertos

## # A tibble: 55,907 x 12
##    ident type  name  elevation_ft continent iso_country iso_region municipality
##    <chr> <chr> <chr>        <dbl> <chr>     <chr>       <chr>      <chr>       
##  1 00A   heli Tota           11 <NA>      US          US-PA      Bensalem    
##  2 00AA  smal Aero         3435 <NA>      US          US-KS      Leoti       
##  3 00AK  smal Lowe          450 <NA>      US          US-AK      Anchor Point
##  4 00AL  smal Epps          820 <NA>      US          US-AL      Harvest     
##  5 00AR  clos Newp          237 <NA>      US          US-AR      Newport     
##  6 00AS  smal Fult         1100 <NA>      US          US-OK      Alex        
##  7 00AZ  smal Cord         3810 <NA>      US          US-AZ      Cordes      
##  8 00CA  smal Gold         3038 <NA>      US          US-CA      Barstow     
##  9 00CL  smal Will           87 <NA>      US          US-CA      Biggs       
## 10 00CN  heli Kitc         3350 <NA>      US          US-CA      Pine Valley 
## #  with 55,897 more rows, and 4 more variables: gps_code <chr>,
## #   iata_code <chr>, local_code <chr>, coordinates <chr>

Realizando modificaciones con la librera tidyr

Es comn que tengamos que realizar operaciones sobre las tablas que nos disponemos a analizar. Estas pueden poseer una disposicin poco amigable, o poseer celdas donde exista ms de un tipo de variable a la vez. Las funciones de la librera tidyr nos permiten llevar nuestros datos al formato deseado para anlisis con tidyverse. En ingls se denomina a este tipo de tablas tidy data.

# realizo una modificacion con la libreria tidyr
aeropuertos %<>% tidyr::separate(data = ., col = 'coordinates', into = c('lon', 'lat'), sep = ', ')
aeropuertos$lat %<>% as.numeric()
aeropuertos$lon %<>% as.numeric()

# viasualizo el resultado
aeropuertos

## # A tibble: 55,907 x 13
##    ident type  name  elevation_ft continent iso_country iso_region municipality
##    <chr> <chr> <chr>        <dbl> <chr>     <chr>       <chr>      <chr>       
##  1 00A   heli Tota           11 <NA>      US          US-PA      Bensalem    
##  2 00AA  smal Aero         3435 <NA>      US          US-KS      Leoti       
##  3 00AK  smal Lowe          450 <NA>      US          US-AK      Anchor Point
##  4 00AL  smal Epps          820 <NA>      US          US-AL      Harvest     
##  5 00AR  clos Newp          237 <NA>      US          US-AR      Newport     
##  6 00AS  smal Fult         1100 <NA>      US          US-OK      Alex        
##  7 00AZ  smal Cord         3810 <NA>      US          US-AZ      Cordes      
##  8 00CA  smal Gold         3038 <NA>      US          US-CA      Barstow     
##  9 00CL  smal Will           87 <NA>      US          US-CA      Biggs       
## 10 00CN  heli Kitc         3350 <NA>      US          US-CA      Pine Valley 
## #  with 55,897 more rows, and 5 more variables: gps_code <chr>,
## #   iata_code <chr>, local_code <chr>, lon <dbl>, lat <dbl>

Aunque a simple vista no parezca, es posible que nuestra tabla posea datos faltantes en las columnas que posee. Podemos corroborar la existencia de datos faltantes utilizando la funcin filter(), de la librera dplyr. A su vez nos valdremos de la funcin is.na().

# visualizamos un caso en el cual existen NAs en nuestra tabla.
aeropuertos %>%
  filter(is.na(iso_country))

## # A tibble: 246 x 13
##    ident type  name  elevation_ft continent iso_country iso_region municipality
##    <chr> <chr> <chr>        <dbl> <chr>     <chr>       <chr>      <chr>       
##  1 FYAA  smal Ai-A         2000 AF        <NA>        NA-KU      Ai-Ais      
##  2 FYAB  smal Aroa         3235 AF        <NA>        NA-KA      Aroab       
##  3 FYAK  smal Auss          970 AF        <NA>        NA-KA      Aussenkehr  
##  4 FYAM  smal Amin         4012 AF        <NA>        NA-OH      Aminuis     
##  5 FYAR  medi Aran         1905 AF        <NA>        NA-ER      Arandis     
##  6 FYAS  smal Aus          4856 AF        <NA>        NA-KA      Aus         
##  7 FYAV  smal Aria         2549 AF        <NA>        NA-KA      Ariamsvley  
##  8 FYBC  smal Beth         3260 AF        <NA>        NA-KA      Bethanien   
##  9 FYBJ  smal Bitt         4167 AF        <NA>        NA-HA      Bitterwasser
## 10 FYEK  smal Epuk         4892 AF        <NA>        NA-OH      Epukiro     
## #  with 236 more rows, and 5 more variables: gps_code <chr>, iata_code <chr>,
## #   local_code <chr>, lon <dbl>, lat <dbl>
…
aeropuertos %>%
 left_join(x = ., y = paises_vs_continentes, by = c('iso_country' = 'Two_Letter_Country_Code')) %>%
 dplyr::select(-continent) -> aeropuertos

aeropuertos

## # A tibble: 57,323 x 13
##    ident type  name  elevation_ft iso_country iso_region municipality gps_code
##    <chr> <chr> <chr>        <dbl> <chr>       <chr>      <chr>        <chr>   
##  1 00A   heli Tota           11 US          US-PA      Bensalem     00A     
##  2 00AA  smal Aero         3435 US          US-KS      Leoti        00AA    
##  3 00AK  smal Lowe          450 US          US-AK      Anchor Point 00AK    
##  4 00AL  smal Epps          820 US          US-AL      Harvest      00AL    
##  5 00AR  clos Newp          237 US          US-AR      Newport      <NA>    
##  6 00AS  smal Fult         1100 US          US-OK      Alex         00AS    
##  7 00AZ  smal Cord         3810 US          US-AZ      Cordes       00AZ    
##  8 00CA  smal Gold         3038 US          US-CA      Barstow      00CA    
##  9 00CL  smal Will           87 US          US-CA      Biggs        00CL    
## 10 00CN  heli Kitc         3350 US          US-CA      Pine Valley  00CN    
## #  with 57,313 more rows, and 5 more variables: iata_code <chr>,
## #   local_code <chr>, lon <dbl>, lat <dbl>, Continent_Name <chr>
…
# analizaremos el tipo de aeropuertos que hay por continente
aeropuertos %>% 
  dplyr::select(name, Continent_Name, type) %>% 
  unique() %>% 
  # en este caso agrupamos segun dos columnas, 'Continent_Name' y 'type'
  group_by(Continent_Name, type) %>% 
  summarise(numero_aeropuertos = n())

## # A tibble: 45 x 3
## # Groups:   Continent_Name [8]
##    Continent_Name type           numero_aeropuertos
##    <chr>          <chr>                       <int>
##  1 Africa         closed                         75
##  2 Africa         heliport                       10
##  3 Africa         large_airport                  48
##  4 Africa         medium_airport                447
##  5 Africa         seaplane_base                   1
##  6 Africa         small_airport                2773
##  7 Antarctica     closed                          2
##  8 Antarctica     medium_airport                  4
##  9 Antarctica     small_airport                  25
## 10 Asia           closed                        403
## #  with 35 more rows
…
