Práctico 10
…
# la visualizo
aeropuertos

## # A tibble: 55,113 x 12
##    ident type          name                               elevation_ft continent iso_country iso_region municipality gps_code iata_code local_code coordinates                            
##    <chr> <chr>         <chr>                                     <dbl> <chr>     <chr>       <chr>      <chr>        <chr>    <chr>     <chr>      <chr>                                  
##  1 00A   heliport      Total Rf Heliport                            11 <NA>      US          US-PA      Bensalem     00A      <NA>      00A        40.07080078125, -74.93360137939453     
##  2 00AA  small_airport Aero B Ranch Airport                       3435 <NA>      US          US-KS      Leoti        00AA     <NA>      00AA       38.704022, -101.473911                 
##  3 00AK  small_airport Lowell Field                                450 <NA>      US          US-AK      Anchor Point 00AK     <NA>      00AK       59.94919968, -151.695999146            
##  4 00AL  small_airport Epps Airpark                                820 <NA>      US          US-AL      Harvest      00AL     <NA>      00AL       34.86479949951172, -86.77030181884766  
##  5 00AR  closed        Newport Hospital & Clinic Heliport          237 <NA>      US          US-AR      Newport      <NA>     <NA>      <NA>       35.6087, -91.254898                    
##  6 00AS  small_airport Fulton Airport                             1100 <NA>      US          US-OK      Alex         00AS     <NA>      00AS       34.9428028, -97.8180194                
##  7 00AZ  small_airport Cordes Airport                             3810 <NA>      US          US-AZ      Cordes       00AZ     <NA>      00AZ       34.305599212646484, -112.16500091552734
##  8 00CA  small_airport Goldstone /Gts/ Airport                    3038 <NA>      US          US-CA      Barstow      00CA     <NA>      00CA       35.350498199499995, -116.888000488     
##  9 00CL  small_airport Williams Ag Airport                          87 <NA>      US          US-CA      Biggs        00CL     <NA>      00CL       39.427188, -121.763427                 
## 10 00CN  heliport      Kitchen Creek Helibase Heliport            3350 <NA>      US          US-CA      Pine Valley  00CN     <NA>      00CN       32.7273736, -116.4597417               
## # … with 55,103 more rows

Realizando modificaciones con la librería tidyr

Es común que tengamos que realizar operaciones sobre las tablas que nos disponemos a analizar. Estas pueden poseer una disposición poco amigable, o poseer celdas donde exista más de un tipo de variable a la vez. Las funciones de la librería tidyr nos permiten llevar nuestros datos al formato deseado para análisis con tidyverse. En inglés se denomina a este tipo de tablas tidy data.

# realizo una modificacion con la libreria tidyr
aeropuertos %<>% tidyr::separate(data = ., col = 'coordinates', into = c('lon', 'lat'), sep = ', ')
aeropuertos$lat %<>% as.numeric()
aeropuertos$lon %<>% as.numeric()

# viasualizo el resultado
aeropuertos

## # A tibble: 55,113 x 13
##    ident type          name                               elevation_ft continent iso_country iso_region municipality gps_code iata_code local_code   lon    lat
##    <chr> <chr>         <chr>                                     <dbl> <chr>     <chr>       <chr>      <chr>        <chr>    <chr>     <chr>      <dbl>  <dbl>
##  1 00A   heliport      Total Rf Heliport                            11 <NA>      US          US-PA      Bensalem     00A      <NA>      00A         40.1  -74.9
##  2 00AA  small_airport Aero B Ranch Airport                       3435 <NA>      US          US-KS      Leoti        00AA     <NA>      00AA        38.7 -101. 
##  3 00AK  small_airport Lowell Field                                450 <NA>      US          US-AK      Anchor Point 00AK     <NA>      00AK        59.9 -152. 
##  4 00AL  small_airport Epps Airpark                                820 <NA>      US          US-AL      Harvest      00AL     <NA>      00AL        34.9  -86.8
##  5 00AR  closed        Newport Hospital & Clinic Heliport          237 <NA>      US          US-AR      Newport      <NA>     <NA>      <NA>        35.6  -91.3
##  6 00AS  small_airport Fulton Airport                             1100 <NA>      US          US-OK      Alex         00AS     <NA>      00AS        34.9  -97.8
##  7 00AZ  small_airport Cordes Airport                             3810 <NA>      US          US-AZ      Cordes       00AZ     <NA>      00AZ        34.3 -112. 
##  8 00CA  small_airport Goldstone /Gts/ Airport                    3038 <NA>      US          US-CA      Barstow      00CA     <NA>      00CA        35.4 -117. 
##  9 00CL  small_airport Williams Ag Airport                          87 <NA>      US          US-CA      Biggs        00CL     <NA>      00CL        39.4 -122. 
## 10 00CN  heliport      Kitchen Creek Helibase Heliport            3350 <NA>      US          US-CA      Pine Valley  00CN     <NA>      00CN        32.7 -116. 
## # … with 55,103 more rows

Aunque a simple vista no parezca, es posible que nuestra tabla posea datos faltantes en las columnas que posee. Podemos corroborar la existencia de datos faltantes utilizando la función filter(), de la librería dplyr. A su vez nos valdremos de la función is.na().

# visualizamos un caso en el cual existen NAs en nuestra tabla.
aeropuertos %>%
  filter(is.na(iso_country))

## # A tibble: 247 x 13
##    ident type           name                                      elevation_ft continent iso_country iso_region municipality gps_code iata_code local_code   lon   lat
##    <chr> <chr>          <chr>                                            <dbl> <chr>     <chr>       <chr>      <chr>        <chr>    <chr>     <chr>      <dbl> <dbl>
##  1 FYAA  small_airport  Ai-Ais Airport                                    2000 AF        <NA>        NA-KU      Ai-Ais       FYAA     AIW       <NA>       -28.0  17.6
##  2 FYAB  small_airport  Aroab B Airport                                   3235 AF        <NA>        NA-KA      Aroab        FYAB     <NA>      <NA>       -26.8  19.6
##  3 FYAK  small_airport  Aussenkehr Airport                                 970 AF        <NA>        NA-KA      Aussenkehr   FYAK     <NA>      <NA>       -28.5  17.5
##  4 FYAM  small_airport  Aminuis Airstrip                                  4012 AF        <NA>        NA-OH      Aminuis      FYAM     <NA>      <NA>       -23.7  19.4
##  5 FYAR  medium_airport Arandis Airport                                   1905 AF        <NA>        NA-ER      Arandis      FYAR     ADI       <NA>       -22.5  15.0
##  6 FYAS  small_airport  Aus Airport                                       4856 AF        <NA>        NA-KA      Aus          FYAS     <NA>      <NA>       -26.7  16.3
##  7 FYAV  small_airport  Ariamsvley Airport                                2549 AF        <NA>        NA-KA      Ariamsvley   FYAV     <NA>      <NA>       -28.1  19.8
##  8 FYBC  small_airport  Bethanien Airport                                 3260 AF        <NA>        NA-KA      Bethanien    FYBC     <NA>      <NA>       -26.5  17.2
##  9 FYBJ  small_airport  Bitterwasser Lodge & Flying Club Airfield         4167 AF        <NA>        NA-HA      Bitterwasser FYBJ     <NA>      <NA>       -23.9  18.0
## 10 FYEK  small_airport  Epukiro Airport                                   4892 AF        <NA>        NA-OH      Epukiro      FYEK     <NA>      <NA>       -21.8  19.1
## # … with 237 more rows
…
aeropuertos %>%
 left_join(x = ., y = paises_vs_continentes, by = c('iso_country' = 'Two_Letter_Country_Code')) %>%
 dplyr::select(-continent) -> aeropuertos

aeropuertos

## # A tibble: 56,524 x 13
##    ident type          name                               elevation_ft iso_country iso_region municipality gps_code iata_code local_code   lon    lat Continent_Name
##    <chr> <chr>         <chr>                                     <dbl> <chr>       <chr>      <chr>        <chr>    <chr>     <chr>      <dbl>  <dbl> <chr>         
##  1 00A   heliport      Total Rf Heliport                            11 US          US-PA      Bensalem     00A      <NA>      00A         40.1  -74.9 North America 
##  2 00AA  small_airport Aero B Ranch Airport                       3435 US          US-KS      Leoti        00AA     <NA>      00AA        38.7 -101.  North America 
##  3 00AK  small_airport Lowell Field                                450 US          US-AK      Anchor Point 00AK     <NA>      00AK        59.9 -152.  North America 
##  4 00AL  small_airport Epps Airpark                                820 US          US-AL      Harvest      00AL     <NA>      00AL        34.9  -86.8 North America 
##  5 00AR  closed        Newport Hospital & Clinic Heliport          237 US          US-AR      Newport      <NA>     <NA>      <NA>        35.6  -91.3 North America 
##  6 00AS  small_airport Fulton Airport                             1100 US          US-OK      Alex         00AS     <NA>      00AS        34.9  -97.8 North America 
##  7 00AZ  small_airport Cordes Airport                             3810 US          US-AZ      Cordes       00AZ     <NA>      00AZ        34.3 -112.  North America 
##  8 00CA  small_airport Goldstone /Gts/ Airport                    3038 US          US-CA      Barstow      00CA     <NA>      00CA        35.4 -117.  North America 
##  9 00CL  small_airport Williams Ag Airport                          87 US          US-CA      Biggs        00CL     <NA>      00CL        39.4 -122.  North America 
## 10 00CN  heliport      Kitchen Creek Helibase Heliport            3350 US          US-CA      Pine Valley  00CN     <NA>      00CN        32.7 -116.  North America 
## # … with 56,514 more rows
…
# analizaremos el tipo de aeropuertos que hay por continente
aeropuertos %>% 
  dplyr::select(name, Continent_Name, type) %>% 
  unique() %>% 
  # en este caso agrupamos segun dos columnas, 'Continent_Name' y 'type'
  group_by(Continent_Name, type) %>% 
  summarise(numero_aeropuertos = n())

## # A tibble: 45 x 3
## # Groups:   Continent_Name [8]
##    Continent_Name type           numero_aeropuertos
##    <chr>          <chr>                       <int>
##  1 Africa         closed                         70
##  2 Africa         heliport                       10
##  3 Africa         large_airport                  47
##  4 Africa         medium_airport                448
##  5 Africa         seaplane_base                   1
##  6 Africa         small_airport                2757
##  7 Antarctica     closed                          2
##  8 Antarctica     medium_airport                  4
##  9 Antarctica     small_airport                  25
## 10 Asia           closed                        398
## # … with 35 more rows
…
